{
  "request": {
    "urlPathPattern": "/idExternoComFile/(.*)",
    "method": "GET"
  },
  "response": {
    "status": 200,
    "bodyFileName": "body.json",
    "transformers": ["response-templade"]
  }
}